(footprint "HDMI_Micro-D_Molex_46765-0x01" (version 20211014) (generator pcbnew)
  (layer "F.Cu")
  (tedit 5A16B616)
  (descr "HDMI, Micro, Type D, SMD, 0.4mm pitch, 19 ckt, right angle (http://www.molex.com/pdm_docs/sd/467651301_sd.pdf)")
  (tags "hdmi micro type d right angle smd")
  (attr smd)
  (fp_text reference "REF**" (at 0 -6.3) (layer "F.SilkS")
    (effects (font (size 1 1) (thickness 0.15)))
    (tstamp 5123df4a-318e-4e75-8e23-7189eba3d1cb)
  )
  (fp_text value "HDMI_Micro-D_Molex_46765-0x01" (at 0 3.6) (layer "F.Fab")
    (effects (font (size 1 1) (thickness 0.15)))
    (tstamp 49c8ed55-a93a-4539-9516-73e768e4dc08)
  )
  (fp_text user "KEEPOUT" (at 0 -0.47) (layer "Cmts.User")
    (effects (font (size 0.7 0.7) (thickness 0.1)))
    (tstamp 5f571bd2-7357-48fd-9d5b-df07610f5b41)
  )
  (fp_text user "${REFERENCE}" (at 0 -3.3) (layer "F.Fab")
    (effects (font (size 1 1) (thickness 0.15)))
    (tstamp e4fd12bf-5d74-4f77-92b3-d92f2111aaaa)
  )
  (fp_line (start -3.31 2.46) (end 3.31 2.46) (layer "F.SilkS") (width 0.12) (tstamp 3fd4799f-13c1-4a52-847b-fd191cfb62fe))
  (fp_line (start -3.31 -1.3) (end -3.31 -2.4) (layer "F.SilkS") (width 0.12) (tstamp 40f27754-4048-4666-b45c-f32787a02ee5))
  (fp_line (start -3.31 2.46) (end -3.31 1.3) (layer "F.SilkS") (width 0.12) (tstamp 5d786593-5d88-4b19-b970-48580d1e3e3c))
  (fp_line (start 2.15 -5.16) (end 3.31 -5.16) (layer "F.SilkS") (width 0.12) (tstamp 68f8da39-e8c2-4d6a-bc6f-570559b58cda))
  (fp_line (start 3.31 1.3) (end 3.31 2.46) (layer "F.SilkS") (width 0.12) (tstamp 8225fa0c-5e6b-4dcb-a9ec-b884bf03514c))
  (fp_line (start 3.31 -5.16) (end 3.31 -4.35) (layer "F.SilkS") (width 0.12) (tstamp 8285a822-d129-450b-9a7f-661e6c2214f4))
  (fp_line (start -3.31 -5.16) (end -2.15 -5.16) (layer "F.SilkS") (width 0.12) (tstamp 9e6795c8-4edf-40db-8d51-75c6fed9bb67))
  (fp_line (start 3.31 -2.4) (end 3.31 -1.3) (layer "F.SilkS") (width 0.15) (tstamp bb16e4d2-cf68-42aa-907b-9478bc95905a))
  (fp_line (start 2.15 -5.16) (end 2.15 -5.36) (layer "F.SilkS") (width 0.12) (tstamp dc55dca0-7eed-4cdc-893d-f677c2ec694f))
  (fp_line (start -3.31 -4.35) (end -3.31 -5.16) (layer "F.SilkS") (width 0.12) (tstamp e3aa4e33-ad69-482e-91de-089a977d159f))
  (fp_line (start -1.35 1.7) (end 2.35 -2) (layer "Dwgs.User") (width 0.1) (tstamp 097fa5ff-b7fa-4a35-b3d7-0fdefa179326))
  (fp_line (start 0.65 1.7) (end 2.35 0) (layer "Dwgs.User") (width 0.1) (tstamp 1c45d0db-1699-45d6-ade3-cb68bb8eee44))
  (fp_line (start -2.35 -1.3) (end -1.19 -2.46) (layer "Dwgs.User") (width 0.1) (tstamp 26821280-e059-4ff1-852d-90ddab8f4c17))
  (fp_line (start -2.35 1.7) (end -2.35 -2.46) (layer "Dwgs.User") (width 0.1) (tstamp 392cbf2d-8bb6-48a1-a866-1cdc4c577551))
  (fp_line (start -2.35 1.7) (end 1.81 -2.46) (layer "Dwgs.User") (width 0.1) (tstamp 3e57d4e4-0fbd-4058-a4ae-ca7ef667fa58))
  (fp_line (start 1.65 1.7) (end 2.35 1) (layer "Dwgs.User") (width 0.1) (tstamp 4f4c38dc-5143-457f-bd01-3bd248e5a5b5))
  (fp_line (start -2.35 0.7) (end 0.81 -2.46) (layer "Dwgs.User") (width 0.1) (tstamp 6332ebde-3dad-4bba-a63f-fc7156fa8f13))
  (fp_line (start -2.35 -2.46) (end 2.35 -2.46) (layer "Dwgs.User") (width 0.1) (tstamp 7a6aa01c-5245-49e6-9c2f-1a07c4ccb8d7))
  (fp_line (start -2.35 -0.3) (end -0.19 -2.46) (layer "Dwgs.User") (width 0.1) (tstamp 87fcc325-8ebb-4ed3-8f19-d2bf6bcfbb95))
  (fp_line (start -0.35 1.7) (end 2.35 -1) (layer "Dwgs.User") (width 0.1) (tstamp 9b12083d-be65-4d60-966a-6fa9531836e7))
  (fp_line (start 2.35 -2.46) (end 2.35 1.7) (layer "Dwgs.User") (width 0.1) (tstamp ce1dc73d-e1a8-42df-a917-6d49d10d9a14))
  (fp_line (start -3 1.7) (end 3 1.7) (layer "Dwgs.User") (width 0.1) (tstamp fddc009a-0522-4c5d-9a95-efffa4b06946))
  (fp_line (start 4.3 -5.7) (end -4.3 -5.7) (layer "F.CrtYd") (width 0.05) (tstamp 1498e0d0-0327-4f8a-97f6-48b291593264))
  (fp_line (start -4.3 -5.7) (end -4.3 2.9) (layer "F.CrtYd") (width 0.05) (tstamp 6c2b1c6b-7c65-48b1-94f9-060e380c5964))
  (fp_line (start 4.3 2.9) (end 4.3 -5.7) (layer "F.CrtYd") (width 0.05) (tstamp 72494a5e-69b8-4891-8cb9-df49fa33ec80))
  (fp_line (start -4.3 2.9) (end 4.3 2.9) (layer "F.CrtYd") (width 0.05) (tstamp 7682894a-ad4c-4e4b-9782-19bff49712e8))
  (fp_line (start 3.25 2.4) (end -3.25 2.4) (layer "F.Fab") (width 0.1) (tstamp 50177f95-3472-430b-b7bc-26eea9191ea4))
  (fp_line (start 1.8 -4.6) (end 1.3 -5.1) (layer "F.Fab") (width 0.1) (tstamp 67b4475c-ac17-42bf-b455-750865d470d6))
  (fp_line (start 2.3 -5.1) (end 3.25 -5.1) (layer "F.Fab") (width 0.1) (tstamp 76e08208-0c28-40bf-b3a3-475948710cd3))
  (fp_line (start -3.25 2.4) (end -3.25 -5.1) (layer "F.Fab") (width 0.1) (tstamp 7c772b2f-9116-47a0-821c-42b3268f3d8d))
  (fp_line (start 3.25 -5.1) (end 3.25 2.4) (layer "F.Fab") (width 0.1) (tstamp 7fccdad4-e930-4951-9eeb-7417ed31117c))
  (fp_line (start 1.8 -4.6) (end 2.3 -5.1) (layer "F.Fab") (width 0.1) (tstamp 94635ec4-f856-4ebc-8dbd-7eccf57329a7))
  (fp_line (start -3.25 -5.1) (end 1.3 -5.1) (layer "F.Fab") (width 0.1) (tstamp f54add6b-f706-43c0-8c2f-72a4646b459a))
  (pad "1" smd rect (at 1.8 -4.775) (size 0.23 0.85) (layers "F.Cu" "F.Paste" "F.Mask") (tstamp 1d0127ef-87b8-4e3b-b8bc-4dac1e345266))
  (pad "2" smd rect (at 1.6 -3.55) (size 0.23 1) (layers "F.Cu" "F.Paste" "F.Mask") (tstamp 9c471ca4-d5ec-4f4a-9820-5c82c1612355))
  (pad "3" smd rect (at 1.4 -4.775) (size 0.23 0.85) (layers "F.Cu" "F.Paste" "F.Mask") (tstamp 0d421541-244b-4196-ad92-464940be6a32))
  (pad "4" smd rect (at 1.2 -3.55) (size 0.23 1) (layers "F.Cu" "F.Paste" "F.Mask") (tstamp b44c68f7-0948-4c3c-851b-a607b8a99a7b))
  (pad "5" smd rect (at 1 -4.775) (size 0.23 0.85) (layers "F.Cu" "F.Paste" "F.Mask") (tstamp afe1dde2-b906-499a-b854-3db06e95f343))
  (pad "6" smd rect (at 0.8 -3.55) (size 0.23 1) (layers "F.Cu" "F.Paste" "F.Mask") (tstamp 140088f9-dd46-49cb-a0b4-b6d54ccf127f))
  (pad "7" smd rect (at 0.6 -4.775) (size 0.23 0.85) (layers "F.Cu" "F.Paste" "F.Mask") (tstamp a568e73c-0ad2-4852-a365-e726120807c9))
  (pad "8" smd rect (at 0.4 -3.55) (size 0.23 1) (layers "F.Cu" "F.Paste" "F.Mask") (tstamp c9c48c92-69a5-45a8-8266-ce465629344d))
  (pad "9" smd rect (at 0.2 -4.775) (size 0.23 0.85) (layers "F.Cu" "F.Paste" "F.Mask") (tstamp b0e438c0-a190-4399-b7d1-a21ef410a197))
  (pad "10" smd rect (at 0 -3.55) (size 0.23 1) (layers "F.Cu" "F.Paste" "F.Mask") (tstamp 86d140e0-52e2-4ec6-9599-eab9fd3256c6))
  (pad "11" smd rect (at -0.2 -4.775) (size 0.23 0.85) (layers "F.Cu" "F.Paste" "F.Mask") (tstamp 50c185b3-2593-40ac-a95f-21d89e2decc6))
  (pad "12" smd rect (at -0.4 -3.55) (size 0.23 1) (layers "F.Cu" "F.Paste" "F.Mask") (tstamp f6171b66-d01a-467a-ae34-2d44f25844dc))
  (pad "13" smd rect (at -0.6 -4.775) (size 0.23 0.85) (layers "F.Cu" "F.Paste" "F.Mask") (tstamp 44fed3f9-1cdf-48e1-b9d9-ac1a008e6f1e))
  (pad "14" smd rect (at -0.8 -3.55) (size 0.23 1) (layers "F.Cu" "F.Paste" "F.Mask") (tstamp c735c736-540a-44e6-ab49-1f7370fc923c))
  (pad "15" smd rect (at -1 -4.775) (size 0.23 0.85) (layers "F.Cu" "F.Paste" "F.Mask") (tstamp 5b82de49-9537-451d-b200-38d4e8302af9))
  (pad "16" smd rect (at -1.2 -3.55) (size 0.23 1) (layers "F.Cu" "F.Paste" "F.Mask") (tstamp 699dd389-7e04-4d3b-a11b-a06d67ae9f83))
  (pad "17" smd rect (at -1.4 -4.775) (size 0.23 0.85) (layers "F.Cu" "F.Paste" "F.Mask") (tstamp 812c0ec3-1369-47ea-8693-6a5eead2b72a))
  (pad "18" smd rect (at -1.6 -3.55) (size 0.23 1) (layers "F.Cu" "F.Paste" "F.Mask") (tstamp d0a2804f-5f18-4721-bc86-8e9547bc12f9))
  (pad "19" smd rect (at -1.8 -4.775) (size 0.23 0.85) (layers "F.Cu" "F.Paste" "F.Mask") (tstamp 29e1af53-a582-407d-90f0-6b53568c4634))
  (pad "SH" smd rect (at -2.85 -3.36) (size 1.8 1.38) (layers "F.Cu" "F.Paste" "F.Mask") (tstamp 6408508f-7146-4ba1-8e05-282693bc85ba))
  (pad "SH" smd rect (at -2.85 0) (size 1.7 2) (layers "F.Cu" "F.Paste" "F.Mask") (tstamp 64257579-0ecb-4506-b4ac-9abe53675d2a))
  (pad "SH" smd rect (at 2.85 -3.36) (size 1.8 1.38) (layers "F.Cu" "F.Paste" "F.Mask") (tstamp 99144579-d2ca-4325-a10f-655244c44c65))
  (pad "SH" smd rect (at 2.85 0) (size 1.7 2) (layers "F.Cu" "F.Paste" "F.Mask") (tstamp ad0479e7-6cd9-440f-9b9e-7758a4795940))
  (model "${KICAD6_3DMODEL_DIR}/Connector_HDMI.3dshapes/HDMI_Micro-D_Molex_46765-0x01.wrl"
    (offset (xyz 0 0 0))
    (scale (xyz 1 1 1))
    (rotate (xyz 0 0 0))
  )
)
